{
  "development": {
    "username": "root",
    "password": "root@123",
    "database": "hippa_dev",
    "host": "127.0.0.1",
    "dialect": "mysql"
  },
  "test": {
    "username": "colanon",
    "password": "rw9IbRNhE5mQ",
    "database": "colanon_genetix",
    "host": "127.0.0.1",
    "dialect": "mysql",
    "operatorsAliases": false
  },
  "production": {
    "username": "genetixdnascreening",
    "password": "0QPCV!$jGB5E",
    "database": "genetixdnascreening",
    "host": "127.0.0.1",
    "dialect": "mysql"
  }
}
